{
  "phrases": {
    "commands": {
      "Drop": "Smid :item:",
      "DropAll": "Smid :amount:x :item:",
      "Destroy": {
        "Destroy": "Ødelage :amount:x :item:",
        "Title": "Ødelæg :item:",
        "Desc": "Er du sikker på, at du vil ødelægge:item:?",
        "Yes": "Ja",
        "No": "Nej"
      },
      "UnableHolster": "Du kan ikke hylstre dette våben på grund af din begrænsede lagerplads"
    },
    "bank": {
      "Title": "XeninInventory - Bank"
    },
    "inventory": {
      "Title": "Inventory",
      "Search": "Søg",
      "Money": ":money:",
      "Shipments": ":amount: Våben tilbage",
      "Tabs": {
        "Inventory": "INVENTORY"
      },
      "Actions": {
        "Equip": "Smid",
        "Drop": "Smid Alt",
        "DropAll": "Ødelægge",
        "Use": "Brug",
        "DropAmount": "Smid beløb"
      },
      "Errors": {
        "Invalid": "Ugyldigt antal?",
        "TooLow": "For lavt et nummer",
        "TooHigh": "Du kan ikke have droppe så mange, fordi du ikke har så mange!"
      },
      "Fields": {
        "Amount": "x:amount:",
        "MaxAmount": "max x:amount:"
      },
      "Sort": {
        "Unsorted": "Usorteret",
        "Alphabetically": "Alfabetisk"
      },
      "Pickup": {
        "Markup": ":font::color:Tryk :/color::rarityColor:ALT + :key::/color: for at tage :name: til dit inventory:/color::/font:",
        "Pickup": "Tryk på ALT +:key:  at tilføje :name: til din beholdning"
      }
    }
  }
}
